^C:\USERS\ACER ASPIRE E5-571G\DOCUMENTS\VISUAL STUDIO 2015\PROJECTS\ПРОИЗВЕДЕНИЕ МАТРИЦ\ПРОИЗВЕДЕНИЕ МАТРИЦ\DEBUG\SOURCE.OBJ
C:\USERS\ACER ASPIRE E5-571G\DOCUMENTS\VISUAL STUDIO 2015\PROJECTS\произведение матриц\DEBUG\произведение матриц.ILK
C:\USERS\ACER ASPIRE E5-571G\DOCUMENTS\VISUAL STUDIO 2015\PROJECTS\произведение матриц\DEBUG\произведение матриц.EXE
C:\USERS\ACER ASPIRE E5-571G\DOCUMENTS\VISUAL STUDIO 2015\PROJECTS\ПРОИЗВЕДЕНИЕ МАТРИЦ\DEBUG\ПРОИЗВЕДЕНИЕ МАТРИЦ.PDB
